{"success":true,"message":"Thành công","data":{"content":[{"id":44,"createdBy":"trinhthuc432@gmail.com","createdAt":"2025-04-03T10:08:45Z","lastModifiedBy":"trinhthuc432@gmail.com","lastModifiedAt":"2025-04-03T10:08:45Z","deleted":false,"userId":2,"totalAmount":100000,"status":0,"eventId":1,"emailSent":false,"orderCode":"ORDLFLTSU4GQK","voucherUsed":false,"listOrderTicket":[{"id":41,"createdBy":"trinhthuc432@gmail.com","createdAt":"2025-04-03T10:08:46Z","lastModifiedBy":"trinhthuc432@gmail.com","lastModifiedAt":"2025-04-03T10:08:46Z","deleted":false,"orderId":44,"ticketId":1,"ticketType":"VIP","quantity":1,"price":100000.0,"totalPrice":100000.0,"status":1}]},{"id":43,"createdBy":"trinhthuc432@gmail.com","createdAt":"2025-04-03T10:01:23Z","lastModifiedBy":"trinhthuc432@gmail.com","lastModifiedAt":"2025-04-03T10:01:23Z","deleted":false,"userId":2,"totalAmount":100000,"status":0,"eventId":1,"emailSent":false,"orderCode":"ORDLFLTSU4GEB","voucherUsed":false,"listOrderTicket":[{"id":40,"createdBy":"trinhthuc432@gmail.com","createdAt":"2025-04-03T10:01:25Z","lastModifiedBy":"trinhthuc432@gmail.com","lastModifiedAt":"2025-04-03T10:01:25Z","deleted":false,"orderId":43,"ticketId":1,"ticketType":"VIP","quantity":1,"price":100000.0,"totalPrice":100000.0,"status":1}]},{"id":42,"createdBy":"trinhthuc432@gmail.com","createdAt":"2025-04-03T09:53:31Z","lastModifiedBy":"trinhthuc432@gmail.com","lastModifiedAt":"2025-04-03T09:53:31Z","deleted":false,"userId":2,"totalAmount":100000,"status":0,"eventId":1,"emailSent":false,"orderCode":"ORDLFLXSU4G17","voucherUsed":false,"listOrderTicket":[{"id":39,"createdBy":"trinhthuc432@gmail.com","createdAt":"2025-04-03T09:53:33Z","lastModifiedBy":"trinhthuc432@gmail.com","lastModifiedAt":"2025-04-03T09:53:33Z","deleted":false,"orderId":42,"ticketId":1,"ticketType":"VIP","quantity":1,"price":100000.0,"totalPrice":100000.0,"status":1}]},{"id":41,"createdBy":"trinhthuc432@gmail.com","createdAt":"2025-04-03T09:45:08Z","lastModifiedBy":"trinhthuc432@gmail.com","lastModifiedAt":"2025-04-03T09:45:08Z","deleted":false,"userId":2,"totalAmount":100000,"status":0,"eventId":1,"emailSent":false,"orderCode":"ORDLFLWSU4FN8","voucherUsed":false,"listOrderTicket":[{"id":38,"createdBy":"trinhthuc432@gmail.com","createdAt":"2025-04-03T09:45:09Z","lastModifiedBy":"trinhthuc432@gmail.com","lastModifiedAt":"2025-04-03T09:45:09Z","deleted":false,"orderId":41,"ticketId":1,"ticketType":"VIP","quantity":1,"price":100000.0,"totalPrice":100000.0,"status":1}]},{"id":37,"createdBy":"trinhthuc432@gmail.com","createdAt":"2025-04-03T09:36:50Z","lastModifiedBy":"trinhthuc432@gmail.com","lastModifiedAt":"2025-04-03T09:36:50Z","deleted":false,"userId":2,"totalAmount":100000,"status":0,"eventId":1,"emailSent":false,"orderCode":"ORDLFLTSU4F9E","voucherUsed":false,"listOrderTicket":[{"id":34,"createdBy":"trinhthuc432@gmail.com","createdAt":"2025-04-03T09:36:51Z","lastModifiedBy":"trinhthuc432@gmail.com","lastModifiedAt":"2025-04-03T09:36:51Z","deleted":false,"orderId":37,"ticketId":1,"ticketType":"VIP","quantity":1,"price":100000.0,"totalPrice":100000.0,"status":1}]}],"pageable":{"sort":{"unsorted":false,"sorted":true,"empty":false},"offset":0,"pageSize":5,"pageNumber":0,"paged":true,"unpaged":false},"last":false,"totalPages":2,"totalElements":8,"size":5,"sort":{"unsorted":false,"sorted":true,"empty":false},"numberOfElements":5,"first":true,"number":0,"empty":false},"keyMessage":"success"}